module gitlab.com/uweklosa/bookings

go 1.19

require (
	github.com/alexedwards/scs/v2 v2.5.0
	github.com/asaskevich/govalidator v0.0.0-20210307081110-f21760c49a8d
	github.com/go-chi/chi/v5 v5.0.7
	github.com/jackc/pgconn v1.13.0
	github.com/jackc/pgx/v4 v4.17.1
	github.com/justinas/nosurf v1.1.1
	github.com/xhit/go-simple-mail/v2 v2.11.0
	golang.org/x/crypto v0.0.0-20220722155217-630584e8d5aa
)

require (
	github.com/go-test/deep v1.0.8 // indirect
	github.com/jackc/chunkreader/v2 v2.0.1 // indirect
	github.com/jackc/pgio v1.0.0 // indirect
	github.com/jackc/pgpassfile v1.0.0 // indirect
	github.com/jackc/pgproto3/v2 v2.3.1 // indirect
	github.com/jackc/pgservicefile v0.0.0-20200714003250-2b9c44734f2b // indirect
	github.com/jackc/pgtype v1.12.0 // indirect
	github.com/lib/pq v1.10.3 // indirect
	github.com/pkg/errors v0.9.1 // indirect
	github.com/toorop/go-dkim v0.0.0-20201103131630-e1cd1a0a5208 // indirect
	golang.org/x/text v0.3.7 // indirect
)
